Workshop 10 - Data Viz 3
…
It will not shock you to learn that the required functions are called
group_by() and summarise(). Go take a look at
their help files now…

If you run the first of these, group_by, the output
looks almost the same, but this time the table has added an
underlying flag to say that it can be grouped by year.

measles %>%
  group_by(year)

## # A tibble: 8,360 × 4
## # Groups:   year [44]
##    entity       year cases continent
##    <chr>       <int> <int> <chr>    
##  1 Afghanistan  2023  2792 Asia     
##  2 Afghanistan  2022  5166 Asia     
##  3 Afghanistan  2021  2900 Asia     
##  4 Afghanistan  2020   640 Asia     
##  5 Afghanistan  2019   353 Asia     
##  6 Afghanistan  2018  2012 Asia     
##  7 Afghanistan  2017  1511 Asia     
##  8 Afghanistan  2016   638 Asia     
##  9 Afghanistan  2015  1154 Asia     
## 10 Afghanistan  2014   492 Asia     
## # ℹ 8,350 more rows
…
